6
Lattice="19.390656170615614 0.0 0.0 0.0 15.692242182499859 0.0 0.0 0.0 15.53070000000002" Properties=species:S:1:pos:R:3:magmoms:R:1 energy=-29.33192694279898 dipole="0.518960157827915 -0.07170599749682778 -4.1804644480621544e-08" magmom=0.0 free_energy=-29.33192694279898 pbc="F F F"
O        8.25041699       7.75429550       7.76534999       0.00000000
H        9.22110211       7.76922965       7.76534999       0.00000000
H        8.00000000       8.69224218       7.76534999       0.00000000
O       11.15170859       7.54735370       7.76535000       0.00000000
H       11.39065617       7.00000000       7.00000000       0.00000000
H       11.39065617       7.00000000       8.53070000       0.00000000
