288
Lattice="13.807002808961276 0.0 0.0 0.0 15.943036933401302 0.0 0.0 0.0 14.985500865735121" Properties=species:S:1:pos:R:3 pbc="T T T"
O        1.23881388       1.42386875       1.50666673
H        1.20283563       1.43313141       0.53657787
H        0.41929755       1.86831190       1.77743584
O        3.53558543       2.65633341       2.47273927
H        3.49212750       3.56012977       2.12100618
H        2.72801969       2.23390120       2.13831253
O        1.06915024       1.39101463       6.08659168
H        1.88441826       1.83962056       5.80992688
H        1.11686004       1.39167600       7.05621840
O        3.41722023       2.71902407       5.26016745
H        3.47459291       2.68985681       4.29150328
H        4.22556476       2.27144474       5.55800046
O        3.39628971       5.26825502       1.44118722
H        2.58357287       5.73436388       1.69552260
H        3.36902699       5.25875963       0.47081656
O        1.06549807       6.63607048       2.25877098
H        1.10361903       7.56526937       1.98022323
H        1.06807243       6.68015949       3.22856589
O        3.34334542       5.38832298       6.09832440
H        3.35014716       5.33254394       7.06749676
H        3.37129982       4.46222495       5.80847337
O        1.07624512       6.73256228       5.10008591
H        0.29664421       6.26846990       5.44547455
H        1.82689103       6.24069212       5.47028463
O        1.16254168       9.29698964       1.35425408
H        1.94012714       9.78251532       1.67375099
H        0.40982789       9.81718680       1.67870668
O        3.44648296      10.68787882       2.24945468
H        4.25511743      10.21972645       1.98602295
H        3.47486988      10.68019137       3.21980911
O        1.18105681       9.37792462       6.02129107
H        1.13863090       8.45252751       5.73095875
H        1.16756280       9.32203641       6.99038707
O        3.44890993      10.74773203       5.07650870
H        2.68865736      10.24675538       5.41339304
H        4.21926780      10.26327010       5.41458862
O        3.47428202      13.37504052       1.40779690
H        3.46828919      12.44329181       1.68030572
H        3.46266641      13.33726846       0.43780155
O        1.15784650      14.69926369       2.40151185
H        1.95501082      14.27046162       2.05064084
H        1.21791111      15.61176723       2.07565579
O        3.49570093      13.36345323       6.11376644
H        3.44715880      12.46681755       5.74479388
H        2.69016730      13.79652626       5.78816552
O        1.13942572      14.64833917       5.21416431
H        1.14678792      14.69913569       4.24472213
H        1.12686922      15.57633346       5.49898278
O        5.80253464       1.33745983       1.42127849
H        5.75938048       0.43574309       1.77834607
H        5.01289623       1.77207811       1.78187630
O        8.10590734       2.61589729       2.34413166
H        8.03514769       3.52767661       2.01839531
H        7.29631499       2.18709920       2.02296961
O        5.71990160       1.41713031       6.16293295
H        5.75668352       0.51139491       5.81545187
H        6.52250659       1.83674510       5.81335994
O        8.00813210       2.68170984       5.15627562
H        8.81253446       2.23041318       5.45913002
H        8.06245653       2.63636997       4.18805778
O        7.97952036       5.27567895       1.39620846
H        7.21002662       5.75918060       1.73761461
H        8.74059039       5.77787874       1.72940571
O        5.70542432       6.66635984       2.29801290
H        4.89868637       6.20787682       2.01267130
H        5.65453058       6.65224184       3.26737514
O        7.93119557       5.36022574       6.02298027
H        7.96742690       4.43512939       5.73085587
H        7.93857596       5.30213240       6.99201243
O        5.63954170       6.70494012       5.09782946
H        6.39541741       6.20225186       5.44193563
H        4.86545689       6.24561238       5.46150977
O        5.78581065       9.34316895       1.43026213
H        5.75332403       8.41627959       1.71709546
H        5.79594493       9.28999623       0.46097239
O        8.11520977      10.69425992       2.31247237
H        8.09059245      10.66443545       3.28250181
H        7.31664693      10.21342424       2.04127673
O        5.71197152       9.34809994       6.07676001
H        5.71779411       8.44627585       5.71741054
H        6.53359171       9.74125327       5.74086812
O        8.08222731      10.63172640       5.13356878
H        8.09748392      11.54074380       5.47402029
H        8.89455951      10.23400615       5.48625510
O        8.04058624      13.35903215       1.42942373
H        8.05822310      12.43561135       1.72848157
H        8.05442342      13.29370435       0.46092311
O        5.75175644      14.66881158       2.40610057
H        6.51675459      14.18700895       2.05241047
H        4.98607464      14.19235951       2.04668793
O        8.07152794      13.28500576       6.12548890
H        7.30120604      13.78181124       5.80573724
H        8.83166925      13.77949898       5.77891382
O        5.80184737      14.71111142       5.21786743
H        5.76254887      14.67741659       4.24844857
H        4.99763344      14.24800056       5.50286029
O       10.41072046       1.37561801       1.31739989
H       10.38372788       0.47066113       1.66779547
H        9.60254994       1.78701532       1.66390431
O       12.67556856       2.68113164       2.36128994
H       11.88873553       2.24239549       1.99954831
H       12.61821462       3.58794610       2.01945562
O       10.28426670       1.33016465       6.08392373
H       11.08731507       1.80060066       5.80777903
H       10.31742390       1.35595926       7.05381438
O       12.54038642       2.71814513       5.17428173
H       12.58861750       2.68983856       4.20509386
H       13.35849304       2.28318640       5.46404905
O       12.53685642       5.34138703       1.41555278
H       13.33967501       5.81326215       1.68990442
H       12.58429518       5.33898862       0.44591550
O       10.25215707       6.65930237       2.36039231
H       10.32740158       7.56880748       2.02934646
H       11.04502061       6.21680547       2.01685695
O       12.59179087       5.39769680       6.08578983
H       12.54646181       4.48795302       5.74998608
H       11.77615724       5.81067295       5.75922420
O       10.27761767       6.70868002       5.17539681
H        9.45971197       6.26333795       5.44953791
H       10.24507611       6.68571437       4.20541420
O       10.43734150       9.31291810       1.40108416
H       11.20464229       9.81275934       1.72335867
H        9.67395150       9.81792045       1.72459765
O       12.73041534      10.71056265       2.27947955
H       12.72449593      11.64166118       2.00475585
H       12.73988443      10.75078132       3.24939988
O       10.46108299       9.39062316       6.08507052
H       10.46306300       9.32322259       7.05352593
H       10.40575332       8.46917670       5.78452486
O       12.72128839      10.76004580       5.09952369
H       13.49777731      10.28156790       5.43205410
H       11.96735085      10.25869395       5.44977664
O       12.70728011      13.36241856       1.37667509
H       11.92967837      13.83785622       1.71096118
H       13.46004562      13.86249139       1.73125073
O       10.39146495      14.69577050       2.29376912
H        9.58915302      14.22686532       2.01292018
H       10.34779209      14.67824083       3.26342784
O       12.61670098      13.37351505       6.13912437
H       13.41815513      13.80765621       5.80499068
H       12.66894871      12.47307365       5.78005879
O       10.30938437      14.64762126       5.11989007
H       10.33534661      15.55067969       5.47522662
H       11.11482705      14.23332727       5.46928271
O        1.15395396       1.36243742       8.90382713
H        1.18527151       0.44852401       9.22976288
H        1.95919052       1.76874802       9.26293493
O        3.44965851       2.61735178       9.88694715
H        4.24420170       2.14042310       9.59765012
H        3.49524248       2.58568433      10.85615916
O        1.19616905       1.39682034      13.68382348
H        1.15899022       0.49110641      13.33632868
H        0.40313824       1.82206376      13.31951207
O        3.53926051       2.57162828      12.70589168
H        3.49892707       3.48811872      13.02349381
H        2.72869853       2.16565603      13.05320773
O        3.36800142       5.25525451       8.90761823
H        3.42689498       4.34854678       9.24947387
H        4.17204375       5.68560108       9.24044011
O        1.11722044       6.64094324       9.83701533
H        1.87241616       6.12536097       9.51096784
H        0.34259999       6.17171611       9.48738452
O        3.41423900       5.21361166      13.60437685
H        4.18169881       5.70238811      13.26591613
H        2.65118849       5.69325612      13.24361689
O        1.16266053       6.56553374      12.64200154
H        1.16935767       7.49443699      12.92404149
H        1.14201949       6.61341686      11.67260286
O        1.11749206       9.27262852       8.83823949
H        1.92826818       9.67616072       9.18789142
H        1.14721145       8.35988546       9.16758657
O        3.47486358      10.53080656       9.77848660
H        3.47500393      10.57947834      10.74806572
H        3.45043874      11.45916493       9.49563187
O        1.21169513       9.23173820      13.53102404
H        1.17174149       9.26932750      14.50027291
H        0.41975280       9.71394060      13.24334225
O        3.51151356      10.57476821      12.60256560
H        3.44920728      11.47929858      12.94954595
H        2.71422725      10.13662191      12.94140922
O        3.39279396      13.21123723       8.92164927
H        4.20921989      13.65350552       9.20502198
H        3.42431677      13.25612872       7.95240023
O        1.17095311      14.67251290       9.87807129
H        0.39443639      14.18645159       9.55679444
H        1.92486055      14.16353894       9.53892277
O        3.43274689      13.24651870      13.59615512
H        4.21561166      13.69723121      13.24058008
H        2.68651314      13.76564128      13.25542126
O        1.20662022      14.73494987      12.68835150
H        1.17540038      14.70961303      11.71838449
H        0.41071939      14.25152893      12.96275759
O        5.72244076       1.22478640       8.96288226
H        5.74292331       1.29937245       7.99516845
H        6.52204672       1.69291810       9.25259877
O        7.97745853       2.62877602       9.81438660
H        8.79509437       2.18816524       9.53192174
H        8.02432541       2.61407591      10.78394322
O        5.83230400       1.21016106      13.58314369
H        5.02762227       1.68127104      13.31296723
H        5.80910593       1.24061597      14.55318853
O        8.07916491       2.58525831      12.61552612
H        8.02228802       3.48662476      12.97155445
H        7.29282584       2.14091774      12.97145442
O        7.99605982       5.26840247       8.83365696
H        7.96090882       4.35877122       9.17098176
H        7.18808678       5.68002087       9.18035927
O        5.69471123       6.54113223       9.80410450
H        5.72088809       7.46998335       9.52302979
H        5.70758103       6.58756118      10.77370821
O        7.95993009       5.21895139      13.58312966
H        8.76763597       5.68059877      13.30573907
H        7.98820079       5.25594476      14.55281255
O        5.68890314       6.55198373      12.60772296
H        6.48182104       6.11375657      12.95656501
H        5.74733786       7.45672860      12.95481767
O        5.80704692       9.24036751       8.91380872
H        5.00099062       9.70287885       9.19453837
H        5.76907616       9.26748513       7.94413068
O        8.10761617      10.53617121       9.87043273
H        8.07258966      11.44289544       9.52535747
H        7.30204791      10.12028312       9.52323033
O        5.78424634       9.19020756      13.58996850
H        5.03193909       9.69706429      13.24416121
H        6.56217386       9.65950989      13.24786217
O        8.08247744      10.53855352      12.68180193
H        8.89983992      10.08884326      12.95037572
H        8.11384698      10.52551654      11.71159647
O        8.06378531      13.21438668       8.92673262
H        8.85404042      13.69759187       9.21735649
H        8.10292465      13.25910850       7.95775341
O        5.72202999      14.49190547       9.82237303
H        5.76114358      15.40439151       9.49329555
H        6.53955388      14.08639471       9.49121091
O        8.12427593      13.22713744      13.60138597
H        8.11001457      12.31077479      13.28118487
H        7.30916912      13.61472867      13.24385756
O        5.76948355      14.46594707      12.63457981
H        5.77109818      14.51638240      11.66509216
H        5.79508633      15.39374409      12.91916692
O       10.29706082       1.35856369       8.90362001
H       11.10819522       1.77586634       9.23584300
H       10.34741416       0.44761393       9.23541470
O       12.64282961       2.64218391       9.85339409
H       12.67105631       3.54501278       9.49764713
H       13.45899571       2.23294305       9.52347370
O       10.41882109       1.29564911      13.49238296
H       10.38656956       1.33285576      14.46193344
H        9.60776012       1.74937382      13.21172904
O       12.72863028       2.65690310      12.65941396
H       11.91836564       2.19089091      12.92162851
H       12.69973754       2.65269002      11.68905315
O       12.64942440       5.30323838       8.88276754
H       11.83079784       5.73367160       9.17777673
H       12.60140557       5.34370244       7.91400054
O       10.29520708       6.58309359       9.78829337
H       10.25479567       6.54472436      10.75749270
H        9.49066475       6.12250020       9.50016491
O       12.62528232       5.31327615      13.58314789
H       13.43380307       5.73538971      13.25063177
H       12.68513581       4.40029554      13.25859189
O       10.26721351       6.54753264      12.64658953
H       11.08484903       6.12666270      12.95770572
H       10.33417170       7.46059923      12.96951157
O       10.42307781       9.25360415       8.90776752
H       10.35806074       8.33811020       9.22414742
H        9.60794776       9.67241052       9.22810619
O       12.67467488      10.64549789       9.85280216
H       13.43852830      10.15836807       9.50396822
H       11.90821860      10.14191504       9.53436578
O       10.41638290       9.22411807      13.55046446
H       10.45051633       9.27363300      14.51939986
H       11.21261387       9.69858235      13.26175609
O       12.72773075      10.59961293      12.66445992
H       12.73879597      11.53085503      12.93853718
H       12.72071185      10.63918923      11.69449235
O       12.67160612      13.31839897       8.96062931
H       12.66241906      13.29293841       7.99020673
H       12.66540005      12.38326321       9.22127319
O       10.35333954      14.66443497       9.81604130
H       11.15102624      14.18592926       9.53822688
H       10.37760234      14.62071235      10.78555267
O       12.77110307      13.30249561      13.53611414
H       11.94913360      13.73621547      13.25556844
H       12.73575135      13.33453929      14.50574093
O       10.42600445      14.56059660      12.63230998
H        9.62289984      14.13797230      12.97707702
H       10.37351062      15.47192147      12.96274003
